[
  {
    "request": {
      "options": [],
      "body": "",
      "url": "https://api.polygon.io/v2/reference/news?apiKey=***eBW3jIHcpDil5K5rFB4a8irMFX9Sm5&page=1&perpage=50&ticker=AAPL",
      "headers": [],
      "method": "get",
      "request_body": ""
    },
    "response": {
      "binary": false,
      "type": "ok",
      "body": "{\"results\":[{\"id\":\"NrhH63A__49kfvNIDY8-qRmsxh2ydCetYqLbDhwMiYY\",\"publisher\":{\"name\":\"The Motley Fool\",\"homepage_url\":\"https://www.fool.com/\",\"logo_url\":\"https://s3.polygon.io/public/assets/news/logos/themotleyfool.svg\",\"favicon_url\":\"https://s3.polygon.io/public/assets/news/favicons/themotleyfool.ico\"},\"title\":\"1 Wall Street Analyst Says Apple Could Hit $230. Is It a Buy?\",\"author\":\"newsfeedback@fool.com (Jeremy Bowman)\",\"published_utc\":\"2024-06-13T15:34:43Z\",\"article_url\":\"https://www.fool.com/investing/2024/06/13/wall-street-analyst-apple-could-hit-230-buy/\",\"tickers\":[\"AAPL\"],\"image_url\":\"https://g.foolcdn.com/editorial/images/780471/apple-60-1.jpg\",\"description\":\"Bank of America analysts are bullish on Apple. Here's why.\",\"keywords\":[\"investing\"]},{\"id\":\"rgQhvgdB5CREE4m4MFPoKnYHsX9wI6W_4PhIWEqlO3c\",\"publisher\":{\"name\":\"Benzinga\",\"homepage_url\":\"https://www.benzinga.com/\",\"logo_url\":\"https://s3.polygon.io/public/assets/news/logos/benzinga.svg\",\"favicon_url\":\"https://s3.polygon.io/public/assets/news/favicons/benzinga.ico\"},\"title\":\"Extremely Positive Sentiment On Lower PPI, Higher Jobless Claims, Musk Claim, And Broadcom Split\",\"author\":\"The Arora Report\",\"published_utc\":\"2024-06-13T15:31:17Z\",\"article_url\":\"https://www.benzinga.com/markets/24/06/39315861/extremely-positive-sentiment-on-lower-ppi-higher-jobless-claims-musk-claim-and-broadcom-split\",\"tickers\":[\"GLD\",\"SLV\",\"SPY\",\"USO\",\"AMZN\",\"GOOG\",\"MSFT\",\"NVDA\",\"AAPL\",\"AVGO\",\"TSLA\",\"QQQ\",\"META\"],\"image_url\":\"https://cdn.benzinga.com/files/nicholas-cappello-wb63zqj5gne-unsplash_2_5.jpg?width=1200&height=800&fit=crop\",\"description\":\"To gain an edge, this is what you need to know today.\\n\\nLower PPI\\nPlease click here for an enlarged chart of SPDR S&P 500 ETF Trust (ARCA:SPY) which represents the benchmark stock market index S&P 500 (SPX).\\nNote the following:\\n\\nThe chart shows that the stock market took another leg up on Consumer Price Index (CPI) data yesterday. Please click here for details.\\nThe chart shows that after the Fed announcement, the stock market pulled back as the dot plot was more hawkish than expected. Please see click here for details.\\nThe chart shows that the stock market first jumped this morning on release of Producer Price Index (PPI) and jobless claims data.\\nRSI on the chart shows that the stock market is very overbought. Overbought markets tend to be susceptible to a pullback.\\nThe chart shows that the volume was higher yesterday than other recent low volume days, but the volume was not high enough considering the strong rally. This is a negative.\\nInflation at the producer level came cooler than expected. Here are the details:\\n\\nHeadline PPI came at -0.2% vs. 0.1% consensus.\\nCore PPI came at 0.0% vs. 0.3% consensus.\\n\\n\\nIn The Arora Report analysis, a big part of the drop in PPI is because of the following reasons:\\n\\nWe have been sharing with readers that producer prices in China have been dropping. Since the U.S. imports a large amount of goods from China, China is exporting disflation to the U.S.\\nOil prices have fallen due to concerns about a weak economy. Oil contributes significantly to PPI.\\n\\n\\nWeekly initial claims came at 242K vs. 224K consensus. This indicates that the jobs picture is weakening.  Initial jobless claims is a leading indicator and carries heavy weight in our adaptive ZYX Asset Allocation Model with inputs in ten categories.  In plain English, adaptiveness means that the model changes itself with market conditions. Please click here to see how this is achieved.\\nThe sentiment is extremely positive in addition to CPI, PPI, and jobless claims.  The following are adding to the positive sentiment.\\n\\nElon Musk is claiming that shareholders voted for his pay package. Tesla Inc (NASDAQ: TSLA) stock is jumping about 7% as of this writing in the premarket.\\nSemiconductor company Broadcom Inc (NASDAQ: Full story available on Benzinga.com\",\"keywords\":[\"Economics\",\"Markets\",\"Trading Ideas\",\"General\"]},{\"id\":\"RwnUqkrSjblyS7H7aQjG9lvNEzEdOFQvUR4wrD8y9us\",\"publisher\":{\"name\":\"Zacks Investment Research\",\"homepage_url\":\"https://www.zacks.com/\",\"logo_url\":\"https://s3.polygon.io/public/assets/news/logos/zacks.png\",\"favicon_url\":\"https://s3.polygon.io/public/assets/news/favicons/zacks.ico\"},\"title\":\"Stock Market News for June 13, 2024\",\"author\":\"Zacks Equity Research\",\"published_utc\":\"2024-06-13T13:25:00Z\",\"article_url\":\"https://www.zacks.com/stock/news/2287778/stock-market-news-for-june-13-2024\",\"tickers\":[\"AAPL\",\"MRVL\"],\"image_url\":\"https://staticx-tuner.zacks.com/images/articles/main/f3/778.jpg\",\"description\":\"Wall Street closed mixed on Wednesday, driven by tech stocks.\"},{\"id\":\"DeylZM9EUQQy8D0G7kGXSgtXuskLCybQVxr5L0g85PY\",\"publisher\":{\"name\":\"The Motley Fool\",\"homepage_url\":\"https://www.fool.com/\",\"logo_url\":\"https://s3.polygon.io/public/assets/news/logos/themotleyfool.svg\",\"favicon_url\":\"https://s3.polygon.io/public/assets/news/favicons/themotleyfool.ico\"},\"title\":\"The Oracle of Omaha Meets AI: Is Berkshire Hathaway Prepared for Technological Disruption?\",\"author\":\"newsfeedback@fool.com (George Budwell)\",\"published_utc\":\"2024-06-13T12:30:00Z\",\"article_url\":\"https://www.fool.com/investing/2024/06/13/the-oracle-of-omaha-meets-ai-is-berkshire-hathaway/\",\"tickers\":[\"BRK.B\",\"BRK.A\",\"AAPL\"],\"image_url\":\"https://g.foolcdn.com/editorial/images/780395/buffett21-tmf.png\",\"description\":\"Berkshire Hathaway's portfolio may contain underappreciated AI-associated risks.\",\"keywords\":[\"investing\"]},{\"id\":\"lub6ivmG_ZOJoGb-w2Gkr9uazxSIUIrgdV-2ge9_8o4\",\"publisher\":{\"name\":\"The Motley Fool\",\"homepage_url\":\"https://www.fool.com/\",\"logo_url\":\"https://s3.polygon.io/public/assets/news/logos/themotleyfool.svg\",\"favicon_url\":\"https://s3.polygon.io/public/assets/news/favicons/themotleyfool.ico\"},\"title\":\"Apple Stock Has Been Soaring. Is It a Buy?\",\"author\":\"newsfeedback@fool.com (Daniel Sparks)\",\"published_utc\":\"2024-06-13T12:10:00Z\",\"article_url\":\"https://www.fool.com/investing/2024/06/13/apple-stock-has-been-soaring-is-it-a-buy/\",\"tickers\":[\"AAPL\"],\"image_url\":\"https://g.foolcdn.com/editorial/images/780344/aapl-stock-up.jpg\",\"description\":\"AI hype has propelled shares more than 20% higher in just three months.\",\"keywords\":[\"investing\"]},{\"id\":\"wfrr-tYQHR8e7U8CvONKJH_hsEIjQJSvIYSnrDOAa6o\",\"publisher\":{\"name\":\"The Motley Fool\",\"homepage_url\":\"https://www.fool.com/\",\"logo_url\":\"https://s3.polygon.io/public/assets/news/logos/themotleyfool.svg\",\"favicon_url\":\"https://s3.polygon.io/public/assets/news/favicons/themotleyfool.ico\"},\"title\":\"Why Microsoft Is the Big Loser in Apple Intelligence\",\"author\":\"newsfeedback@fool.com (Travis Hoium)\",\"published_utc\":\"2024-06-13T11:14:00Z\",\"article_url\":\"https://www.fool.com/investing/2024/06/13/why-microsoft-is-the-big-loser-in-apple-intelligen/\",\"tickers\":[\"AAPL\",\"MSFT\",\"NVDA\"],\"image_url\":\"https://g.foolcdn.com/editorial/images/780391/ai-chip.jpg\",\"description\":\"Apple's AI news could cost Microsoft the most.\",\"keywords\":[\"investing\"]},{\"id\":\"nU0CnX2Pei6vhoqEp1mLmVL2yK4kWs0mbiZHb7PPHww\",\"publisher\":{\"name\":\"The Motley Fool\",\"homepage_url\":\"https://www.fool.com/\",\"logo_url\":\"https://s3.polygon.io/public/assets/news/logos/themotleyfool.svg\",\"favicon_url\":\"https://s3.polygon.io/public/assets/news/favicons/themotleyfool.ico\"},\"title\":\"Great News for Apple Stock Investors\",\"author\":\"newsfeedback@fool.com (Parkev Tatevosian, CFA)\",\"published_utc\":\"2024-06-13T11:07:00Z\",\"article_url\":\"https://www.fool.com/investing/2024/06/13/great-news-for-apple-stock-investors/\",\"tickers\":[\"AAPL\"],\"image_url\":\"https://g.foolcdn.com/editorial/images/780455/stock-market-info-smartphone-pointing.jpg\",\"description\":\"Apple finally introduced its artificial intelligence strategy.\",\"keywords\":[\"investing\"]},{\"id\":\"sdzixfdXoy5XdmFBkKLvnzc42aIZRjEFuiWw0w_KAs4\",\"publisher\":{\"name\":\"Zacks Investment Research\",\"homepage_url\":\"https://www.zacks.com/\",\"logo_url\":\"https://s3.polygon.io/public/assets/news/logos/zacks.png\",\"favicon_url\":\"https://s3.polygon.io/public/assets/news/favicons/zacks.ico\"},\"title\":\"The Zacks Analyst Blog Highlights Microsoft,Apple  Alphabet and CompX International\",\"author\":\"Zacks Equity Research\",\"published_utc\":\"2024-06-13T10:35:00Z\",\"article_url\":\"https://www.zacks.com/stock/news/2287633/the-zacks-analyst-blog-highlights-microsoftapple-alphabet-and-compx-international\",\"tickers\":[\"AAPL\",\"MSFT\",\"CIX\",\"GOOGL\"],\"image_url\":\"https://staticx-tuner.zacks.com/images/articles/main/49/437.jpg\",\"description\":\"Microsoft,Apple  Alphabet and CompX International are included in this Analyst Blog.\"},{\"id\":\"WLrnOqs-IsgNRy0ZAM6x0rWBPg4YeG3KWWBT-xQB18M\",\"publisher\":{\"name\":\"Zacks Investment Research\",\"homepage_url\":\"https://www.zacks.com/\",\"logo_url\":\"https://s3.polygon.io/public/assets/news/logos/zacks.png\",\"favicon_url\":\"https://s3.polygon.io/public/assets/news/favicons/zacks.ico\"},\"title\":\"The Zacks Analyst Blog Highlights NVIDIA, Apple, Netflix and Broadcom\",\"author\":\"Zacks Equity Research\",\"published_utc\":\"2024-06-13T10:16:00Z\",\"article_url\":\"https://www.zacks.com/stock/news/2287624/the-zacks-analyst-blog-highlights-nvidia-apple-netflix-and-broadcom\",\"tickers\":[\"AAPL\",\"NFLX\",\"NVDA\",\"AVGO\",\"GOOGL\"],\"image_url\":\"https://staticx-tuner.zacks.com/images/articles/main/aa/397.jpg\",\"description\":\"NVIDIA, Apple, Netflix and Broadcom are included in this Analyst Blog.\"},{\"id\":\"21FbzFNaCQ1Kc4WxBT_fgcOPRwhcyGDf4hJ9NE2JVqE\",\"publisher\":{\"name\":\"The Motley Fool\",\"homepage_url\":\"https://www.fool.com/\",\"logo_url\":\"https://s3.polygon.io/public/assets/news/logos/themotleyfool.svg\",\"favicon_url\":\"https://s3.polygon.io/public/assets/news/favicons/themotleyfool.ico\"},\"title\":\"Forget Nvidia: 3 Artificial Intelligence (AI) Stocks to Buy Instead\",\"author\":\"newsfeedback@fool.com (James Brumley)\",\"published_utc\":\"2024-06-13T10:10:00Z\",\"article_url\":\"https://www.fool.com/investing/2024/06/13/forget-nvidia-3-artificial-intelligence-ai-stocks/\",\"tickers\":[\"NVDA\",\"AAPL\",\"PLTR\",\"IONQ\"],\"image_url\":\"https://g.foolcdn.com/editorial/images/780228/ai-robot.jpg\",\"description\":\"It's time to start thinking about the winners of the next chapter of the artificial intelligence movement.\",\"keywords\":[\"investing\"]}],\"status\":\"OK\",\"request_id\":\"92474b630ab81396d07afff28e8a6a93\",\"count\":10,\"next_url\":\"https://api.polygon.io/v2/reference/news?cursor=YXA9MjAyNC0wNi0xM1QxMCUzQTEwJTNBMDBaJmFzPTIxRmJ6Rk5hQ1ExS2M0V3hCVF9mZ2NPUFJ3aGN5R0RmNGhKOU5FMkpWcUUmb3JkZXI9ZGVzY2VuZGluZyZ0aWNrZXI9QUFQTA\"}",
      "headers": {
        "Server": "nginx/1.19.2",
        "Date": "Thu, 13 Jun 2024 16:44:05 GMT",
        "Content-Type": "application/json",
        "Transfer-Encoding": "chunked",
        "Connection": "keep-alive",
        "Vary": "Accept-Encoding",
        "Link": "<https://api.polygon.io/v2/reference/news?cursor=YXA9MjAyNC0wNi0xM1QxMCUzQTEwJTNBMDBaJmFzPTIxRmJ6Rk5hQ1ExS2M0V3hCVF9mZ2NPUFJ3aGN5R0RmNGhKOU5FMkpWcUUmb3JkZXI9ZGVzY2VuZGluZyZ0aWNrZXI9QUFQTA>; rel=\"next\"",
        "X-Item-Count": "10",
        "X-Request-Id": "92474b630ab81396d07afff28e8a6a93",
        "Strict-Transport-Security": "max-age=15724800; includeSubDomains"
      },
      "status_code": 200
    }
  }
]