[
  {
    "request": {
      "options": [],
      "body": "",
      "url": "https://api.polygon.io/v3/reference/tickers?apiKey=**********************&date=2024-06-15&limit=50",
      "headers": [],
      "method": "get",
      "request_body": ""
    },
    "response": {
      "binary": false,
      "type": "ok",
      "body": "{\"results\":[{\"ticker\":\"A\",\"name\":\"Agilent Technologies Inc.\",\"market\":\"stocks\",\"locale\":\"us\",\"primary_exchange\":\"XNYS\",\"type\":\"CS\",\"active\":true,\"currency_name\":\"usd\",\"cik\":\"0001090872\",\"composite_figi\":\"BBG000C2V3D6\",\"share_class_figi\":\"BBG001SCTQY4\",\"last_updated_utc\":\"2024-05-17T00:00:00Z\"},{\"ticker\":\"AA\",\"name\":\"Alcoa Corporation\",\"market\":\"stocks\",\"locale\":\"us\",\"primary_exchange\":\"XNYS\",\"type\":\"CS\",\"active\":true,\"currency_name\":\"usd\",\"cik\":\"0001675149\",\"composite_figi\":\"BBG00B3T3HD3\",\"share_class_figi\":\"BBG00B3T3HF1\",\"last_updated_utc\":\"2024-06-14T00:00:00Z\"},{\"ticker\":\"AAA\",\"name\":\"Alternative Access First Priority CLO Bond ETF\",\"market\":\"stocks\",\"locale\":\"us\",\"primary_exchange\":\"ARCX\",\"type\":\"ETF\",\"active\":true,\"currency_name\":\"usd\",\"cik\":\"0001776878\",\"composite_figi\":\"BBG01B0JRCS6\",\"share_class_figi\":\"BBG01B0JRCT5\",\"last_updated_utc\":\"2024-06-14T00:00:00Z\"},{\"ticker\":\"AAAIF\",\"name\":\"ALTERNATIVE INVSTMENT TR\",\"market\":\"otc\",\"locale\":\"us\",\"type\":\"FUND\",\"active\":true,\"currency_name\":\"USD\",\"last_updated_utc\":\"2022-08-26T05:00:07.114Z\"},{\"ticker\":\"AAALY\",\"name\":\"AAREAL BANK AG UNSP/ADR\",\"market\":\"otc\",\"locale\":\"us\",\"type\":\"ADRC\",\"active\":true,\"currency_name\":\"USD\",\"composite_figi\":\"BBG002628DF1\",\"share_class_figi\":\"BBG002628F57\",\"last_updated_utc\":\"2023-05-04T05:00:29.876Z\"},{\"ticker\":\"AAAU\",\"name\":\"Goldman Sachs Physical Gold ETF Shares\",\"market\":\"stocks\",\"locale\":\"us\",\"primary_exchange\":\"BATS\",\"type\":\"ETF\",\"active\":true,\"currency_name\":\"usd\",\"cik\":\"0001708646\",\"composite_figi\":\"BBG00LPXX872\",\"share_class_figi\":\"BBG00LPXX8Z1\",\"last_updated_utc\":\"2024-06-14T00:00:00Z\"},{\"ticker\":\"AABB\",\"name\":\"ASIA BROADBAND INC\",\"market\":\"otc\",\"locale\":\"us\",\"type\":\"CS\",\"active\":true,\"currency_name\":\"USD\",\"composite_figi\":\"BBG000CWNRN5\",\"share_class_figi\":\"BBG001SGRBK5\",\"last_updated_utc\":\"2024-02-13T09:45:11.736Z\"},{\"ticker\":\"AABVF\",\"name\":\"ABERDEEN INTL INC\",\"market\":\"otc\",\"locale\":\"us\",\"type\":\"OS\",\"active\":true,\"currency_name\":\"USD\",\"composite_figi\":\"BBG000BXKHJ4\",\"share_class_figi\":\"BBG001S6XZ90\",\"last_updated_utc\":\"2023-05-10T05:00:36.305Z\"},{\"ticker\":\"AACAF\",\"name\":\"AAC TECHS HLDGS INC ORD\",\"market\":\"otc\",\"locale\":\"us\",\"type\":\"OS\",\"active\":true,\"currency_name\":\"USD\",\"last_updated_utc\":\"2022-06-24T14:14:05.429Z\"},{\"ticker\":\"AACAY\",\"name\":\"AAC TECHS HLDGS UNSP/ADR\",\"market\":\"otc\",\"locale\":\"us\",\"type\":\"ADRC\",\"active\":true,\"currency_name\":\"USD\",\"composite_figi\":\"BBG000VNTB62\",\"share_class_figi\":\"BBG001T3PT80\",\"last_updated_utc\":\"2023-04-14T05:00:16.614Z\"},{\"ticker\":\"AACG\",\"name\":\"ATA Creativity Global American Depositary Shares\",\"market\":\"stocks\",\"locale\":\"us\",\"primary_exchange\":\"XNAS\",\"type\":\"ADRC\",\"active\":true,\"currency_name\":\"usd\",\"cik\":\"0001420529\",\"composite_figi\":\"BBG000V2S3P6\",\"share_class_figi\":\"BBG001T125S9\",\"last_updated_utc\":\"2024-05-17T00:00:00Z\"},{\"ticker\":\"AACI\",\"name\":\"Armada Acquisition Corp. I Common Stock\",\"market\":\"stocks\",\"locale\":\"us\",\"primary_exchange\":\"XNAS\",\"type\":\"CS\",\"active\":true,\"currency_name\":\"usd\",\"cik\":\"0001844817\",\"composite_figi\":\"BBG011XR7306\",\"share_class_figi\":\"BBG011XR7315\",\"last_updated_utc\":\"2024-06-14T00:00:00Z\"},{\"ticker\":\"AACIU\",\"name\":\"Armada Acquisition Corp. I Unit\",\"market\":\"stocks\",\"locale\":\"us\",\"primary_exchange\":\"XNAS\",\"type\":\"UNIT\",\"active\":true,\"currency_name\":\"usd\",\"cik\":\"0001844817\",\"composite_figi\":\"BBG011PFP1D1\",\"share_class_figi\":\"BBG011PFP285\",\"last_updated_utc\":\"2024-06-14T00:00:00Z\"},{\"ticker\":\"AACIW\",\"name\":\"Armada Acquisition Corp. I Warrant\",\"market\":\"stocks\",\"locale\":\"us\",\"primary_exchange\":\"XNAS\",\"type\":\"WARRANT\",\"active\":true,\"currency_name\":\"usd\",\"cik\":\"0001844817\",\"composite_figi\":\"BBG011XRPQV1\",\"last_updated_utc\":\"2024-06-14T00:00:00Z\"},{\"ticker\":\"AACRF\",\"name\":\"AIB ACQUISITION CORP RTS\",\"market\":\"otc\",\"locale\":\"us\",\"type\":\"RIGHT\",\"active\":true,\"currency_name\":\"USD\",\"last_updated_utc\":\"2024-05-28T05:00:05.013Z\"},{\"ticker\":\"AACS\",\"name\":\"AMER COMMERCE SOLTNS INC\",\"market\":\"otc\",\"locale\":\"us\",\"type\":\"CS\",\"active\":true,\"currency_name\":\"USD\",\"composite_figi\":\"BBG000JVQ2Q9\",\"share_class_figi\":\"BBG001SBV1Z7\",\"last_updated_utc\":\"2024-05-03T08:45:10.673Z\"},{\"ticker\":\"AACT\",\"name\":\"Ares Acquisition Corporation II\",\"market\":\"stocks\",\"locale\":\"us\",\"primary_exchange\":\"XNYS\",\"type\":\"CS\",\"active\":true,\"currency_name\":\"usd\",\"cik\":\"0001853138\",\"last_updated_utc\":\"2024-06-14T00:00:00Z\"},{\"ticker\":\"AACT.U\",\"name\":\"Ares Acquisition Corporation II Units, each consisting of one Class A ordinary share and one-half of one redeemable warrant\",\"market\":\"stocks\",\"locale\":\"us\",\"primary_exchange\":\"XNYS\",\"type\":\"UNIT\",\"active\":true,\"currency_name\":\"usd\",\"cik\":\"0001853138\",\"last_updated_utc\":\"2024-06-14T00:00:00Z\"},{\"ticker\":\"AACT.WS\",\"name\":\"Ares Acquisition Corporation II Redeemable Warrants, each whole warrant exercisable for one Class A ordinary share at an exercise price of $11.50\",\"market\":\"stocks\",\"locale\":\"us\",\"primary_exchange\":\"XNYS\",\"type\":\"WARRANT\",\"active\":true,\"currency_name\":\"usd\",\"cik\":\"0001853138\",\"last_updated_utc\":\"2024-06-14T00:00:00Z\"},{\"ticker\":\"AACTF\",\"name\":\"AURORA SOLAR TECHNOLOGIES\",\"market\":\"otc\",\"locale\":\"us\",\"type\":\"OS\",\"active\":true,\"currency_name\":\"USD\",\"composite_figi\":\"BBG005BTJ9X6\",\"share_class_figi\":\"BBG001STZM33\",\"last_updated_utc\":\"2022-08-12T05:00:19.436Z\"},{\"ticker\":\"AADI\",\"name\":\"Aadi Bioscience, Inc. Common Stock\",\"market\":\"stocks\",\"locale\":\"us\",\"primary_exchange\":\"XNAS\",\"type\":\"CS\",\"active\":true,\"currency_name\":\"usd\",\"cik\":\"0001422142\",\"composite_figi\":\"BBG002WN7DT2\",\"share_class_figi\":\"BBG002WN7DV9\",\"last_updated_utc\":\"2024-06-14T00:00:00Z\"},{\"ticker\":\"AADR\",\"name\":\"AdvisorShares Dorsey Wright ADR ETF\",\"market\":\"stocks\",\"locale\":\"us\",\"primary_exchange\":\"XNAS\",\"type\":\"ETF\",\"active\":true,\"currency_name\":\"usd\",\"cik\":\"0001408970\",\"composite_figi\":\"BBG000BDYRW6\",\"share_class_figi\":\"BBG001T9B1Y4\",\"last_updated_utc\":\"2024-05-17T00:00:00Z\"},{\"ticker\":\"AAEEF\",\"name\":\"ALTAIR RES INC ORD\",\"market\":\"otc\",\"locale\":\"us\",\"type\":\"OS\",\"active\":true,\"currency_name\":\"USD\",\"composite_figi\":\"BBG002DMMHW5\",\"share_class_figi\":\"BBG001SPCXW0\",\"last_updated_utc\":\"2024-06-14T08:45:13.117Z\"},{\"ticker\":\"AAFRF\",\"name\":\"AIRTEL AFRICA PLC\",\"market\":\"otc\",\"locale\":\"us\",\"type\":\"OS\",\"active\":true,\"currency_name\":\"USD\",\"last_updated_utc\":\"2022-09-30T14:57:35.719Z\"},{\"ticker\":\"AAGC\",\"name\":\"ALL AMERICAN GOLD CORP\",\"market\":\"otc\",\"locale\":\"us\",\"type\":\"CS\",\"active\":true,\"currency_name\":\"USD\",\"composite_figi\":\"BBG000R4MM71\",\"share_class_figi\":\"BBG001T948W9\",\"last_updated_utc\":\"2024-03-27T05:00:17.691Z\"},{\"ticker\":\"AAGFF\",\"name\":\"AFTERMATH SILVER LTD ORD\",\"market\":\"otc\",\"locale\":\"us\",\"type\":\"OS\",\"active\":true,\"currency_name\":\"USD\",\"composite_figi\":\"BBG001ZZWS68\",\"share_class_figi\":\"BBG001V0ZJL9\",\"last_updated_utc\":\"2024-06-01T08:45:14.494Z\"},{\"ticker\":\"AAGH\",\"name\":\"AMERICA GREAT HEALTH\",\"market\":\"otc\",\"locale\":\"us\",\"type\":\"CS\",\"active\":true,\"currency_name\":\"USD\",\"composite_figi\":\"BBG003443HQ1\",\"share_class_figi\":\"BBG003443JG8\",\"last_updated_utc\":\"2024-06-05T05:00:38.744Z\"},{\"ticker\":\"AAGIY\",\"name\":\"AIA GROUP LTD S/ADR\",\"market\":\"otc\",\"locale\":\"us\",\"type\":\"ADRC\",\"active\":true,\"currency_name\":\"USD\",\"composite_figi\":\"BBG001R3QP52\",\"share_class_figi\":\"BBG001V28NN4\",\"last_updated_utc\":\"2024-06-05T05:00:05.8Z\"},{\"ticker\":\"AAGR\",\"name\":\"African Agriculture Holdings Inc. Common Stock\",\"market\":\"stocks\",\"locale\":\"us\",\"primary_exchange\":\"XNAS\",\"type\":\"CS\",\"active\":true,\"currency_name\":\"usd\",\"cik\":\"0001848898\",\"composite_figi\":\"BBG00ZKGK0R2\",\"share_class_figi\":\"BBG00ZKGK109\",\"last_updated_utc\":\"2024-06-14T00:00:00Z\"},{\"ticker\":\"AAGRW\",\"name\":\"African Agriculture Holdings Inc. Warrant\",\"market\":\"stocks\",\"locale\":\"us\",\"primary_exchange\":\"XNAS\",\"type\":\"WARRANT\",\"active\":true,\"currency_name\":\"usd\",\"cik\":\"0001848898\",\"composite_figi\":\"BBG00ZKXGR82\",\"last_updated_utc\":\"2024-06-14T00:00:00Z\"},{\"ticker\":\"AAGRY\",\"name\":\"ASTRA AGRO LESTR UNSP/ADR\",\"market\":\"otc\",\"locale\":\"us\",\"type\":\"ADRC\",\"active\":true,\"currency_name\":\"USD\",\"composite_figi\":\"BBG000KF9H79\",\"share_class_figi\":\"BBG001T8KP46\",\"last_updated_utc\":\"2023-05-04T05:00:30.876Z\"},{\"ticker\":\"AAHIF\",\"name\":\"ASAHI CO LTD ORD\",\"market\":\"otc\",\"locale\":\"us\",\"type\":\"OS\",\"active\":true,\"currency_name\":\"USD\",\"last_updated_utc\":\"2023-06-28T08:45:17.007Z\"},{\"ticker\":\"AAIGF\",\"name\":\"AIA GROUP LTD ORD\",\"market\":\"otc\",\"locale\":\"us\",\"type\":\"OS\",\"active\":true,\"currency_name\":\"USD\",\"last_updated_utc\":\"2022-07-13T16:04:35.488Z\"},{\"ticker\":\"AAIIQ\",\"name\":\"ALABAMA AIRCRAFT INDUS\",\"market\":\"otc\",\"locale\":\"us\",\"type\":\"CS\",\"active\":true,\"currency_name\":\"USD\",\"composite_figi\":\"BBG000HPGHW5\",\"share_class_figi\":\"BBG001SD4Q88\",\"last_updated_utc\":\"2023-10-11T21:27:35.459Z\"},{\"ticker\":\"AAIRF\",\"name\":\"AMERICAN AIRES INC\",\"market\":\"otc\",\"locale\":\"us\",\"type\":\"OS\",\"active\":true,\"currency_name\":\"USD\",\"composite_figi\":\"BBG00RD2H0V8\",\"share_class_figi\":\"BBG00L8QSZF3\",\"last_updated_utc\":\"2024-05-02T05:00:51.411Z\"},{\"ticker\":\"AAKAY\",\"name\":\"AAK AB UNSP/ADR\",\"market\":\"otc\",\"locale\":\"us\",\"type\":\"ADRC\",\"active\":true,\"currency_name\":\"USD\",\"composite_figi\":\"BBG01L562BD2\",\"share_class_figi\":\"BBG01L562C77\",\"last_updated_utc\":\"2024-04-13T02:11:32.274Z\"},{\"ticker\":\"AAL\",\"name\":\"American Airlines Group Inc.\",\"market\":\"stocks\",\"locale\":\"us\",\"primary_exchange\":\"XNAS\",\"type\":\"CS\",\"active\":true,\"currency_name\":\"usd\",\"cik\":\"0000006201\",\"composite_figi\":\"BBG005P7Q881\",\"share_class_figi\":\"BBG005P7Q907\",\"last_updated_utc\":\"2024-05-17T00:00:00Z\"},{\"ticker\":\"AALBF\",\"name\":\"AALBERTS INDUS NV ORD\",\"market\":\"otc\",\"locale\":\"us\",\"type\":\"OS\",\"active\":true,\"currency_name\":\"USD\",\"last_updated_utc\":\"2021-09-28T00:10:12.175Z\"},{\"ticker\":\"AAMAF\",\"name\":\"ATLAS MARA CO NVEST ORD\",\"market\":\"otc\",\"locale\":\"us\",\"type\":\"OS\",\"active\":true,\"currency_name\":\"USD\",\"last_updated_utc\":\"2021-12-10T07:30:30.598Z\"},{\"ticker\":\"AAMC\",\"name\":\"Altisource Asset Mgmt Corp\",\"market\":\"stocks\",\"locale\":\"us\",\"primary_exchange\":\"XASE\",\"type\":\"CS\",\"active\":true,\"currency_name\":\"usd\",\"cik\":\"0001555074\",\"composite_figi\":\"BBG003PNL136\",\"share_class_figi\":\"BBG003PNL145\",\"last_updated_utc\":\"2024-05-17T00:00:00Z\"},{\"ticker\":\"AAME\",\"name\":\"Atlantic American Corp\",\"market\":\"stocks\",\"locale\":\"us\",\"primary_exchange\":\"XNAS\",\"type\":\"CS\",\"active\":true,\"currency_name\":\"usd\",\"cik\":\"0000008177\",\"composite_figi\":\"BBG000B9XB24\",\"share_class_figi\":\"BBG001S5N8T1\",\"last_updated_utc\":\"2024-06-14T00:00:00Z\"},{\"ticker\":\"AAMMF\",\"name\":\"ALMADEX MINERALS LTD\",\"market\":\"otc\",\"locale\":\"us\",\"type\":\"OS\",\"active\":true,\"currency_name\":\"USD\",\"composite_figi\":\"BBG00L1LR0B3\",\"share_class_figi\":\"BBG00K66WBV1\",\"last_updated_utc\":\"2023-06-28T05:00:18.407Z\"},{\"ticker\":\"AAMTF\",\"name\":\"ARMADA MERCANTILE LTD\",\"market\":\"otc\",\"locale\":\"us\",\"type\":\"OS\",\"active\":true,\"currency_name\":\"USD\",\"composite_figi\":\"BBG000K7V8F3\",\"share_class_figi\":\"BBG001S6TJ73\",\"last_updated_utc\":\"2023-06-28T05:00:20.007Z\"},{\"ticker\":\"AAN\",\"name\":\"The Aaron's Company, Inc.\",\"market\":\"stocks\",\"locale\":\"us\",\"primary_exchange\":\"XNYS\",\"type\":\"CS\",\"active\":true,\"currency_name\":\"usd\",\"cik\":\"0001821393\",\"composite_figi\":\"BBG00WCNDCZ6\",\"share_class_figi\":\"BBG00WCNDDH4\",\"last_updated_utc\":\"2024-06-14T00:00:00Z\"},{\"ticker\":\"AANNF\",\"name\":\"AROUNDTOWN SA ORD\",\"market\":\"otc\",\"locale\":\"us\",\"type\":\"OS\",\"active\":true,\"currency_name\":\"USD\",\"last_updated_utc\":\"2021-09-28T08:45:23.537Z\"},{\"ticker\":\"AAOI\",\"name\":\"Applied Optoelectronics, Inc.\",\"market\":\"stocks\",\"locale\":\"us\",\"primary_exchange\":\"XNAS\",\"type\":\"CS\",\"active\":true,\"currency_name\":\"usd\",\"cik\":\"0001158114\",\"composite_figi\":\"BBG000D6VW15\",\"share_class_figi\":\"BBG001SG47G4\",\"last_updated_utc\":\"2024-06-14T00:00:00Z\"},{\"ticker\":\"AAON\",\"name\":\"Aaon Inc\",\"market\":\"stocks\",\"locale\":\"us\",\"primary_exchange\":\"XNAS\",\"type\":\"CS\",\"active\":true,\"currency_name\":\"usd\",\"cik\":\"0000824142\",\"composite_figi\":\"BBG000C2LZP3\",\"share_class_figi\":\"BBG001S6CZK0\",\"last_updated_utc\":\"2024-05-17T00:00:00Z\"},{\"ticker\":\"AAP\",\"name\":\"ADVANCE AUTO PARTS INC\",\"market\":\"stocks\",\"locale\":\"us\",\"primary_exchange\":\"XNYS\",\"type\":\"CS\",\"active\":true,\"currency_name\":\"usd\",\"cik\":\"0001158449\",\"composite_figi\":\"BBG000F7RCJ1\",\"share_class_figi\":\"BBG001SD2SB2\",\"last_updated_utc\":\"2024-06-14T00:00:00Z\"},{\"ticker\":\"AAPB\",\"name\":\"GraniteShares ETF Trust GraniteShares 2x Long AAPL Daily ETF\",\"market\":\"stocks\",\"locale\":\"us\",\"primary_exchange\":\"XNAS\",\"type\":\"ETS\",\"active\":true,\"currency_name\":\"usd\",\"cik\":\"0001689873\",\"composite_figi\":\"BBG0193F21N2\",\"share_class_figi\":\"BBG0193F22H7\",\"last_updated_utc\":\"2024-06-14T00:00:00Z\"},{\"ticker\":\"AAPD\",\"name\":\"Direxion Daily AAPL Bear 1X Shares\",\"market\":\"stocks\",\"locale\":\"us\",\"primary_exchange\":\"XNAS\",\"type\":\"ETS\",\"active\":true,\"currency_name\":\"usd\",\"composite_figi\":\"BBG0193YGJ57\",\"share_class_figi\":\"BBG0193YGK09\",\"last_updated_utc\":\"2024-06-14T00:00:00Z\"}],\"status\":\"OK\",\"request_id\":\"6ad33dd2e0d8e0e8fb255596fdadd69d\",\"count\":50,\"next_url\":\"https://api.polygon.io/v3/reference/tickers?cursor=YWN0aXZlPXRydWUmYXA9QUFQRCU3Q2VhYTMyNzM1ZWMwMWRkNzE4MTY5ZGZkMGNmZmNmMjlhYTQ3ZWJhOGQ4Nzk1MWQyMzA5YTYzMGY1NGY4MGUxMzUmYXM9JmRhdGU9MjAyNC0wNi0xNSZsaW1pdD01MCZvcmRlcj1hc2Mmc29ydD10aWNrZXI\"}",
      "headers": {
        "Server": "nginx/1.19.2",
        "Date": "Sat, 15 Jun 2024 15:20:30 GMT",
        "Content-Type": "application/json",
        "Transfer-Encoding": "chunked",
        "Connection": "keep-alive",
        "Vary": "Accept-Encoding",
        "Link": "<https://api.polygon.io/v3/reference/tickers?cursor=YWN0aXZlPXRydWUmYXA9QUFQRCU3Q2VhYTMyNzM1ZWMwMWRkNzE4MTY5ZGZkMGNmZmNmMjlhYTQ3ZWJhOGQ4Nzk1MWQyMzA5YTYzMGY1NGY4MGUxMzUmYXM9JmRhdGU9MjAyNC0wNi0xNSZsaW1pdD01MCZvcmRlcj1hc2Mmc29ydD10aWNrZXI>; rel=\"next\"",
        "X-Item-Count": "50",
        "X-Request-Id": "6ad33dd2e0d8e0e8fb255596fdadd69d",
        "Strict-Transport-Security": "max-age=15724800; includeSubDomains"
      },
      "status_code": 200
    }
  }
]
